%YAML 1.1
%TAG !u! tag:unity3d.com,2011:
--- !u!1045 &1
EditorBuildSettings:
  m_ObjectHideFlags: 0
  serializedVersion: 2
  m_Scenes:
  - enabled: 1
    path: Assets/Scenes/Start Menu.unity
    guid: bae2d27bb89dc7740bb9a8fc6ceb49af
  - enabled: 1
    path: Assets/Scenes/Level 1.unity
    guid: f0b7306ec8de9dc46b89bda09556666a
  - enabled: 1
    path: Assets/Scenes/Level 2.unity
    guid: e28d5c58d8c17f3488940e0303165696
  - enabled: 1
    path: Assets/Scenes/Game Over.unity
    guid: c9bd5022a848da44ca8e2780fea1965d
  m_configObjects: {}
